<svg width="23" height="25" viewBox="0 0 23 25" fill="none" xmlns="http://www.w3.org/2000/svg">
<path d="M7.36943 11.5808C9.0587 11.5808 10.6788 12.2518 11.8733 13.4463C13.0678 14.6408 13.7389 16.2609 13.7389 17.9502C13.7389 19.6395 13.0678 21.2596 11.8733 22.4541C10.6788 23.6486 9.0587 24.3196 7.36943 24.3196C5.68015 24.3196 4.06006 23.6486 2.86556 22.4541C1.67106 21.2596 1 19.6395 1 17.9502C1 16.2609 1.67106 14.6408 2.86556 13.4463C4.06006 12.2518 5.68015 11.5808 7.36943 11.5808ZM13.8882 0C14.5789 0.000301048 15.2412 0.274799 15.7296 0.763173L18.9861 4.01737L22.238 7.27389C22.7255 7.76259 23 8.42501 23 9.11523V20.5559C23 21.2469 22.7255 21.9097 22.2368 22.3984C21.7482 22.887 21.0854 23.1616 20.3943 23.1616H12.8008C13.2942 22.6485 13.7157 22.0637 14.0481 21.4256L20.3943 21.4244C20.6247 21.4244 20.8456 21.3329 21.0085 21.17C21.1714 21.0072 21.2629 20.7862 21.2629 20.5559L21.2617 9.2681H16.3445C15.6845 9.2682 15.049 9.01779 14.5664 8.56745C14.0838 8.11712 13.7901 7.50042 13.7446 6.84192L13.7389 6.66358L13.7377 1.73712H7.07991C6.84955 1.73712 6.62863 1.82862 6.46574 1.99151C6.30286 2.1544 6.21135 2.37532 6.21135 2.60567V10.5119C5.6147 10.604 5.03141 10.7681 4.47423 11.0006V2.60567C4.47423 1.91461 4.74876 1.25184 5.23742 0.763184C5.72608 0.274526 6.38884 0 7.07991 0H13.8882ZM10.8437 17.9502H8.5275L8.42328 17.9595C8.28977 17.9836 8.16899 18.0539 8.08202 18.1581C7.99505 18.2622 7.9474 18.3936 7.9474 18.5292C7.9474 18.6649 7.99505 18.7963 8.08202 18.9004C8.16899 19.0046 8.28977 19.0748 8.42328 19.099L8.5275 19.1083H9.53503C9.33636 19.4787 9.04616 19.7921 8.69208 20.0186C8.338 20.2451 7.93182 20.3771 7.51225 20.4022C7.09267 20.4273 6.67366 20.3445 6.29512 20.1618C5.91658 19.9791 5.59112 19.7025 5.34974 19.3584C5.30609 19.2961 5.25059 19.2429 5.18641 19.202C5.12222 19.1611 5.0506 19.1333 4.97565 19.12C4.9007 19.1068 4.82387 19.1085 4.74956 19.1249C4.67525 19.1414 4.60491 19.1723 4.54256 19.216C4.48021 19.2596 4.42706 19.3151 4.38616 19.3793C4.34525 19.4435 4.31739 19.5151 4.30417 19.5901C4.29094 19.665 4.2926 19.7418 4.30907 19.8162C4.32553 19.8905 4.35647 19.9608 4.40012 20.0232C4.73303 20.5007 5.17652 20.8906 5.69277 21.1596C6.20901 21.4286 6.78267 21.5688 7.36479 21.568C8.46381 21.568 9.45976 21.0747 10.1268 20.2872L10.2658 20.1135L10.2646 20.8454L10.2739 20.9496C10.2981 21.0831 10.3683 21.2039 10.4725 21.2909C10.5766 21.3779 10.708 21.4255 10.8437 21.4255C10.9793 21.4255 11.1107 21.3779 11.2148 21.2909C11.319 21.2039 11.3893 21.0831 11.4134 20.9496L11.4227 20.8454V18.5292L11.4134 18.425C11.389 18.2917 11.3187 18.1712 11.2145 18.0844C11.1104 17.9977 10.9792 17.9502 10.8437 17.9502ZM7.36479 14.3324C6.27041 14.3324 5.27678 14.8234 4.60857 15.6063L4.47076 15.78L4.47307 15.055L4.46381 14.9508C4.43964 14.8173 4.36935 14.6965 4.26522 14.6095C4.16108 14.5226 4.02971 14.4749 3.89404 14.4749C3.75836 14.4749 3.62699 14.5226 3.52286 14.6095C3.41872 14.6965 3.34843 14.8173 3.32426 14.9508L3.315 15.055V17.3712L3.32426 17.4754C3.3454 17.5911 3.40127 17.6976 3.48443 17.7808C3.56759 17.8639 3.67411 17.9198 3.78981 17.9409L3.89404 17.9502H6.21135L6.31558 17.9409C6.44908 17.9168 6.56986 17.8465 6.65683 17.7423C6.7438 17.6382 6.79145 17.5068 6.79145 17.3712C6.79145 17.2355 6.7438 17.1041 6.65683 17C6.56986 16.8959 6.44908 16.8256 6.31558 16.8014L6.21135 16.7921H5.19456C5.39344 16.4206 5.68434 16.1064 6.03943 15.8795C6.39451 15.6526 6.80188 15.5206 7.22256 15.4962C7.64323 15.4718 8.06313 15.5558 8.44207 15.7401C8.821 15.9244 9.14629 16.2029 9.3868 16.5489C9.47769 16.6662 9.61013 16.7441 9.75678 16.7665C9.90344 16.789 10.0531 16.7543 10.1749 16.6696C10.2968 16.5849 10.3814 16.4567 10.4115 16.3114C10.4415 16.1662 10.4147 16.0149 10.3364 15.8888C10.004 15.4084 9.5599 15.0159 9.04228 14.7449C8.52467 14.474 7.94902 14.3329 7.36479 14.3335V14.3324ZM15.476 2.96468L15.4771 6.66474C15.4771 7.10481 15.8037 7.46728 16.2276 7.52519L16.3457 7.53329L20.0411 7.53214L15.476 2.96468Z" fill="#262626"/>
<circle cx="6.36943" cy="17.95" r="6.36943" fill="white"/>
<path d="M12.8971 16.134L11.5671 15.7283C11.4727 15.4028 11.3434 15.0884 11.1814 14.7907L11.8464 13.5537C11.8715 13.5065 11.8805 13.4524 11.8721 13.3996C11.8637 13.3469 11.8383 13.2982 11.7998 13.2611L10.8156 12.2969C10.7785 12.2584 10.7299 12.233 10.6771 12.2246C10.6243 12.2162 10.5702 12.2252 10.523 12.2503L9.29272 12.9153C8.99236 12.7406 8.67338 12.6001 8.34175 12.4964L7.93609 11.1663C7.91911 11.1167 7.88672 11.0739 7.84366 11.044C7.80059 11.014 7.7491 10.9987 7.69669 11.0001H6.36666C6.31455 11.0006 6.26394 11.0175 6.22211 11.0486C6.18028 11.0797 6.1494 11.1232 6.13391 11.173L5.72825 12.503C5.39489 12.602 5.07368 12.7381 4.77063 12.9087L3.5603 12.2437C3.51309 12.2186 3.459 12.2096 3.40621 12.218C3.35342 12.2264 3.30479 12.2517 3.2677 12.2902L2.29013 13.2478C2.25164 13.2849 2.22627 13.3336 2.21787 13.3863C2.20947 13.4391 2.2185 13.4932 2.24358 13.5404L2.90859 14.7508C2.73803 15.0538 2.60196 15.375 2.50293 15.7084L1.1729 16.114C1.12315 16.1295 1.0796 16.1604 1.04853 16.2022C1.01745 16.2441 1.00046 16.2947 1 16.3468V17.6768C1.00046 17.7289 1.01745 17.7795 1.04853 17.8214C1.0796 17.8632 1.12315 17.8941 1.1729 17.9096L2.50293 18.3152C2.60334 18.6417 2.73938 18.9562 2.90859 19.2529L2.24358 20.5164C2.2185 20.5636 2.20947 20.6177 2.21787 20.6705C2.22627 20.7233 2.25164 20.7719 2.29013 20.809L3.2278 21.8066C3.26489 21.8451 3.31351 21.8704 3.36631 21.8788C3.4191 21.8872 3.47319 21.8782 3.5204 21.8531L4.76398 21.1881C5.05774 21.347 5.36762 21.474 5.68835 21.5672L6.094 22.8972C6.10949 22.9469 6.14038 22.9905 6.18221 23.0216C6.22404 23.0526 6.27465 23.0696 6.32676 23.0701H7.65679C7.70889 23.0696 7.75951 23.0526 7.80134 23.0216C7.84317 22.9905 7.87405 22.9469 7.88954 22.8972L8.2952 21.5672C8.61375 21.4739 8.9214 21.3468 9.21292 21.1881L10.4698 21.8531C10.517 21.8782 10.5711 21.8872 10.6239 21.8788C10.6767 21.8704 10.7253 21.8451 10.7624 21.8066L11.7267 20.8423C11.7652 20.8052 11.7905 20.7566 11.7989 20.7038C11.8073 20.651 11.7983 20.5969 11.7732 20.5497L11.1082 19.2995C11.2694 19.006 11.3987 18.6961 11.4939 18.3751L12.8239 17.9694C12.8737 17.9539 12.9172 17.9231 12.9483 17.8812C12.9794 17.8394 12.9964 17.7888 12.9968 17.7367V16.3734C13.0042 16.3282 12.9987 16.2818 12.9811 16.2395C12.9635 16.1972 12.9344 16.1607 12.8971 16.134ZM7.01837 19.2729C6.57956 19.2768 6.14946 19.1503 5.78268 18.9094C5.41589 18.6685 5.12895 18.324 4.95828 17.9197C4.7876 17.5154 4.74089 17.0696 4.82407 16.6387C4.90726 16.2078 5.11658 15.8114 5.42547 15.4997C5.73436 15.188 6.1289 14.9751 6.55901 14.888C6.98911 14.8009 7.43539 14.8436 7.8412 15.0106C8.24701 15.1776 8.59405 15.4614 8.83828 15.826C9.08251 16.1906 9.2129 16.6195 9.21292 17.0584C9.21294 17.6422 8.98237 18.2025 8.57138 18.6172C8.16038 19.032 7.60223 19.2676 7.01837 19.2729Z" fill="#262626"/>
</svg>
