<svg width="20" height="20" viewBox="0 0 20 20" fill="none" xmlns="http://www.w3.org/2000/svg">
<path d="M4.99993 4.28577C4.81049 4.28577 4.62881 4.36102 4.49485 4.49498C4.3609 4.62893 4.28564 4.81061 4.28564 5.00005V9.28577C4.28564 9.47521 4.3609 9.65689 4.49485 9.79084C4.62881 9.9248 4.81049 10.0001 4.99993 10.0001H14.9999C15.1894 10.0001 15.3711 9.9248 15.505 9.79084C15.639 9.65689 15.7142 9.47521 15.7142 9.28577V5.00005C15.7142 4.81061 15.639 4.62893 15.505 4.49498C15.3711 4.36102 15.1894 4.28577 14.9999 4.28577H4.99993ZM5.71422 8.57148V5.71434H14.2856V8.57148H5.71422Z" fill="#2DA6FE"/>
<path d="M20 3.57143C20 2.62423 19.6237 1.71582 18.954 1.04605C18.2842 0.376274 17.3758 0 16.4286 0H3.57143C2.62423 0 1.71582 0.376274 1.04605 1.04605C0.376274 1.71582 0 2.62423 0 3.57143V16.4286C0 17.3758 0.376274 18.2842 1.04605 18.954C1.71582 19.6237 2.62423 20 3.57143 20H16.4286C17.3758 20 18.2842 19.6237 18.954 18.954C19.6237 18.2842 20 17.3758 20 16.4286V3.57143ZM3.57143 1.42857H16.4286C16.9969 1.42857 17.5419 1.65434 17.9438 2.0562C18.3457 2.45806 18.5714 3.00311 18.5714 3.57143V16.4286C18.5714 16.9969 18.3457 17.5419 17.9438 17.9438C17.5419 18.3457 16.9969 18.5714 16.4286 18.5714H3.57143C3.00311 18.5714 2.45806 18.3457 2.0562 17.9438C1.65434 17.5419 1.42857 16.9969 1.42857 16.4286V3.57143C1.42857 3.00311 1.65434 2.45806 2.0562 2.0562C2.45806 1.65434 3.00311 1.42857 3.57143 1.42857Z" fill="#2DA6FE"/>
</svg>
